…
``` r
all_metadata
```

    ## # A tibble: 185,549 × 16
    ##    site_id      weather_id num_obs area_m2 elevation_m lake_lon_deg lake_lat_deg
    ##    <chr>        <chr>        <dbl>   <dbl>       <dbl>        <dbl>        <dbl>
    ##  1 nhdhr_{C090… nldas_x1_…       0  3.65e6          15        -125.         48.8
    ##  2 nhdhr_{588D… nldas_x1_…       0  4.27e5         108        -125.         48.8
    ##  3 nhdhr_{73F4… nldas_x1_…       0  2.70e7           4        -125.         48.7
    ##  4 nhdhr_{B8A9… nldas_x1_…       0  2.43e5          36        -125.         48.7
    ##  5 nhdhr_{8AE1… nldas_x1_…       0  1.37e6           6        -125.         48.7
    ##  6 nhdhr_{476C… nldas_x1_…       0  1.05e6          32        -125.         48.7
    ##  7 nhdhr_{4B35… nldas_x1_…       0  1.32e5          17        -125.         48.7
    ##  8 nhdhr_{74AE… nldas_x2_…       0  1.51e5         229        -125.         49.0
    ##  9 nhdhr_{4589… nldas_x2_…       0  4.20e5         226        -125.         49.0
    ## 10 nhdhr_{78FF… nldas_x2_…       0  1.50e5         197        -125.         48.9
    ## # … with 185,539 more rows, and 9 more variables: weather_lon_deg <dbl>,
    ## #   weather_lat_deg <dbl>, RMSE_EALSTM <dbl>, RMSE_LM <dbl>, RMSE_ERA5 <dbl>,
    ## #   cluster_id <dbl>, fold_id <dbl>, group_bbox <chr>, group_id <chr>
…
